<svg width="26" height="24" viewBox="0 0 26 24" fill="none" xmlns="http://www.w3.org/2000/svg">
<path fill-rule="evenodd" clip-rule="evenodd" d="M0.874512 0.0490112H5.25282H6.27757L6.47855 1.01367L7.05021 3.75769H24.0538H25.5293L25.2868 5.15497L23.999 12.5723L23.8249 13.575H22.766H9.0955L9.62569 16.12H22.766V18.52H8.60092H7.57617L7.3752 17.5553L4.79972 5.19303L6.02546 4.9577L4.79972 5.19303L4.22806 2.44901H0.874512V0.0490112ZM7.55021 6.15769L8.5955 11.175H21.7072L22.5782 6.15769H7.55021ZM11.9697 21.5067C11.9697 22.6111 11.0394 23.5042 9.8889 23.5042C8.73835 23.5042 7.80811 22.6111 7.80811 21.5067C7.80811 20.4022 8.73835 19.5325 9.8889 19.5325C11.0394 19.5325 11.9697 20.4022 11.9697 21.5067ZM20.1917 23.5042C21.3422 23.5042 22.2724 22.6111 22.2724 21.5067C22.2724 20.4022 21.3422 19.5325 20.1917 19.5325C19.041 19.5325 18.1108 20.4022 18.1108 21.5067C18.1108 22.6111 19.041 23.5042 20.1917 23.5042Z" fill="#888888"/>
</svg>
